%!PS-Adobe-3.0 EPSF-3.0
%%CreationDate: Thu Jun  6 07:00:44 2013
%%LanguageLevel: 3
%%BoundingBox: 0 0 312 448
%%EndComments
newpath
0.00 448.00 moveto
152.55 448.00 lineto
126.83 445.98 103.07 432.90 84.98 414.93 curveto
65.47 395.72 51.82 371.28 42.79 345.59 curveto
40.98 344.61 39.20 343.58 37.60 342.29 curveto
33.06 337.77 30.42 331.78 28.24 325.85 curveto
23.67 312.43 21.76 298.18 21.93 284.03 curveto
22.18 274.14 23.38 263.90 28.16 255.07 curveto
29.59 252.89 31.29 250.90 33.05 248.97 curveto
37.33 217.10 48.54 185.38 69.49 160.58 curveto
83.35 143.87 102.14 130.81 123.39 125.67 curveto
145.29 120.18 168.98 123.80 188.81 134.37 curveto
215.39 148.22 235.45 172.11 249.19 198.36 curveto
256.50 198.01 262.31 203.29 266.24 208.88 curveto
273.57 219.33 277.55 231.68 280.69 243.93 curveto
284.64 260.94 286.67 278.71 283.96 296.07 curveto
282.55 304.37 279.73 313.67 272.02 318.20 curveto
271.75 318.40 271.20 318.81 270.93 319.01 curveto
267.34 349.60 257.48 380.06 238.79 404.84 curveto
225.68 422.41 207.82 437.00 186.77 443.77 curveto
179.88 445.99 172.75 447.34 165.54 448.00 curveto
312.00 448.00 lineto
312.00 3.88 lineto
311.38 6.96 310.84 10.06 310.32 13.15 curveto
307.03 12.93 303.16 11.92 300.30 14.12 curveto
298.24 15.75 298.47 18.63 298.32 20.97 curveto
298.30 35.29 298.31 49.61 298.32 63.92 curveto
302.34 63.91 306.35 63.89 310.37 63.92 curveto
310.37 67.02 310.37 70.13 310.39 73.23 curveto
306.37 73.22 302.36 73.20 298.35 73.25 curveto
298.30 81.49 298.27 89.73 298.36 97.97 curveto
294.37 95.54 290.32 93.20 286.36 90.72 curveto
286.39 84.89 286.33 79.06 286.38 73.22 curveto
283.44 73.21 280.50 73.21 277.56 73.23 curveto
277.58 70.13 277.58 67.02 277.58 63.90 curveto
280.51 63.90 283.44 63.90 286.38 63.92 curveto
286.41 49.17 286.30 34.42 286.42 19.68 curveto
286.67 14.60 286.51 8.50 290.89 4.98 curveto
296.80 0.14 305.03 1.39 312.00 2.53 curveto
312.00 0.00 lineto
42.76 0.00 lineto
43.00 0.56 lineto
53.50 1.93 64.18 0.61 74.74 1.28 curveto
77.70 1.60 80.83 2.99 82.20 5.80 curveto
84.57 10.12 84.04 15.25 84.14 20.00 curveto
83.98 32.82 84.43 45.65 83.86 58.46 curveto
82.97 56.10 82.02 53.75 81.07 51.40 curveto
80.10 52.89 79.12 54.37 78.15 55.85 curveto
77.70 53.98 77.24 52.10 76.78 50.22 curveto
77.64 50.72 78.51 51.21 79.37 51.69 curveto
78.87 50.53 78.55 49.25 77.77 48.22 curveto
76.65 47.54 75.26 47.76 74.02 47.56 curveto
75.03 50.97 76.24 54.44 76.09 58.05 curveto
74.20 62.94 70.21 67.53 71.58 73.15 curveto
75.59 74.72 79.50 76.52 83.39 78.36 curveto
81.29 81.75 77.92 84.39 73.78 84.39 curveto
54.53 84.56 35.27 84.37 16.02 84.48 curveto
13.40 84.56 10.82 84.12 8.26 83.63 curveto
5.54 84.14 2.78 84.73 0.00 84.46 curveto
0.00 448.00 lineto
closepath
1.000 1.000 1.000 setrgbcolor
fill
newpath
152.55 448.00 moveto
165.54 448.00 lineto
172.75 447.34 179.88 445.99 186.77 443.77 curveto
207.82 437.00 225.68 422.41 238.79 404.84 curveto
257.48 380.06 267.34 349.60 270.93 319.01 curveto
271.20 318.81 271.75 318.40 272.02 318.20 curveto
268.11 317.84 264.16 318.00 260.31 318.78 curveto
262.47 319.64 264.81 319.79 267.11 319.96 curveto
263.15 353.05 250.76 386.00 227.86 410.69 curveto
211.84 427.94 189.79 440.23 166.05 441.91 curveto
143.22 443.96 120.42 435.97 102.03 422.73 curveto
80.64 407.19 64.43 385.29 53.49 361.38 curveto
44.97 343.06 39.65 323.36 36.87 303.38 curveto
35.31 306.53 36.05 310.05 36.52 313.36 curveto
37.34 320.13 40.50 326.56 39.59 333.51 curveto
40.32 336.03 40.98 338.57 41.46 341.15 curveto
40.33 341.45 lineto
39.65 341.66 38.28 342.08 37.60 342.29 curveto
39.20 343.58 40.98 344.61 42.79 345.59 curveto
51.82 371.28 65.47 395.72 84.98 414.93 curveto
103.07 432.90 126.83 445.98 152.55 448.00 curveto
closepath
0.118 0.102 0.094 setrgbcolor
fill
newpath
102.03 422.73 moveto
120.42 435.97 143.22 443.96 166.05 441.91 curveto
189.79 440.23 211.84 427.94 227.86 410.69 curveto
250.76 386.00 263.15 353.05 267.11 319.96 curveto
264.81 319.79 262.47 319.64 260.31 318.78 curveto
254.52 315.63 250.82 309.87 247.91 304.15 curveto
242.48 293.07 239.32 281.02 237.14 268.92 curveto
234.52 253.80 233.29 238.30 235.07 223.01 curveto
236.19 214.63 238.06 205.25 245.11 199.74 curveto
232.02 175.42 213.08 153.45 188.42 140.40 curveto
185.44 138.83 182.33 137.50 179.39 135.85 curveto
178.85 135.72 177.77 135.45 177.23 135.32 curveto
165.33 141.21 157.07 152.58 152.54 164.82 curveto
147.01 179.46 145.09 195.15 144.06 210.67 curveto
116.67 214.08 89.29 217.51 61.90 220.96 curveto
59.26 200.90 65.87 180.66 77.14 164.20 curveto
81.15 157.93 86.38 152.62 91.10 146.91 curveto
65.70 165.74 49.59 194.71 41.57 224.86 curveto
35.51 247.39 33.98 270.98 35.85 294.19 curveto
36.26 297.24 36.51 300.32 36.87 303.38 curveto
39.65 323.36 44.97 343.06 53.49 361.38 curveto
64.43 385.29 80.64 407.19 102.03 422.73 curveto
closepath
1.000 1.000 1.000 setrgbcolor
fill
newpath
28.24 325.85 moveto
30.42 331.78 33.06 337.77 37.60 342.29 curveto
38.28 342.08 39.65 341.66 40.33 341.45 curveto
39.27 340.40 38.23 339.33 37.27 338.19 curveto
33.93 333.94 31.96 328.85 30.04 323.86 curveto
25.00 308.83 23.40 292.76 24.58 276.99 curveto
25.23 269.94 26.56 262.72 30.29 256.59 curveto
29.76 256.21 28.69 255.45 28.16 255.07 curveto
23.38 263.90 22.18 274.14 21.93 284.03 curveto
21.76 298.18 23.67 312.43 28.24 325.85 curveto
closepath
0.216 0.067 0.125 setrgbcolor
fill
newpath
40.33 341.45 moveto
41.46 341.15 lineto
40.98 338.57 40.32 336.03 39.59 333.51 curveto
39.27 332.57 38.95 331.63 38.64 330.68 curveto
38.80 333.26 38.25 335.81 37.27 338.19 curveto
38.23 339.33 39.27 340.40 40.33 341.45 curveto
closepath
0.588 0.286 0.380 setrgbcolor
fill
newpath
71.47 340.31 moveto
81.05 342.05 90.11 332.37 88.01 322.93 curveto
86.79 314.75 77.96 308.94 69.96 311.00 curveto
62.48 312.60 57.20 320.46 58.64 328.00 curveto
59.57 334.34 65.03 339.74 71.47 340.31 curveto
closepath
0.122 0.102 0.090 setrgbcolor
fill
newpath
30.04 323.86 moveto
31.96 328.85 33.93 333.94 37.27 338.19 curveto
38.25 335.81 38.80 333.26 38.64 330.68 curveto
34.41 316.15 32.59 301.02 31.73 285.95 curveto
31.43 276.79 31.23 267.57 32.29 258.45 curveto
32.32 256.92 32.34 255.39 32.35 253.85 curveto
31.84 254.54 30.81 255.91 30.29 256.59 curveto
26.56 262.72 25.23 269.94 24.58 276.99 curveto
23.40 292.76 25.00 308.83 30.04 323.86 curveto
closepath
0.843 0.286 0.475 setrgbcolor
fill
newpath
38.64 330.68 moveto
38.95 331.63 39.27 332.57 39.59 333.51 curveto
40.50 326.56 37.34 320.13 36.52 313.36 curveto
36.05 310.05 35.31 306.53 36.87 303.38 curveto
36.51 300.32 36.26 297.24 35.85 294.19 curveto
34.90 293.48 34.15 292.63 33.61 291.65 curveto
31.66 280.66 34.70 269.35 32.29 258.45 curveto
31.23 267.57 31.43 276.79 31.73 285.95 curveto
32.59 301.02 34.41 316.15 38.64 330.68 curveto
closepath
0.227 0.051 0.090 setrgbcolor
fill
newpath
170.57 325.32 moveto
177.47 326.33 184.88 321.91 186.82 315.12 curveto
189.22 308.22 185.76 299.86 178.97 296.98 curveto
171.39 293.10 161.27 297.40 158.60 305.43 curveto
155.17 313.97 161.48 324.29 170.57 325.32 curveto
closepath
0.122 0.102 0.090 setrgbcolor
fill
newpath
247.91 304.15 moveto
250.82 309.87 254.52 315.63 260.31 318.78 curveto
264.16 318.00 268.11 317.84 272.02 318.20 curveto
279.73 313.67 282.55 304.37 283.96 296.07 curveto
286.67 278.71 284.64 260.94 280.69 243.93 curveto
277.55 231.68 273.57 219.33 266.24 208.88 curveto
262.31 203.29 256.50 198.01 249.19 198.36 curveto
235.45 172.11 215.39 148.22 188.81 134.37 curveto
168.98 123.80 145.29 120.18 123.39 125.67 curveto
102.14 130.81 83.35 143.87 69.49 160.58 curveto
48.54 185.38 37.33 217.10 33.05 248.97 curveto
31.29 250.90 29.59 252.89 28.16 255.07 curveto
28.69 255.45 29.76 256.21 30.29 256.59 curveto
30.81 255.91 31.84 254.54 32.35 253.85 curveto
32.34 255.39 32.32 256.92 32.29 258.45 curveto
34.70 269.35 31.66 280.66 33.61 291.65 curveto
34.15 292.63 34.90 293.48 35.85 294.19 curveto
33.98 270.98 35.51 247.39 41.57 224.86 curveto
49.59 194.71 65.70 165.74 91.10 146.91 curveto
96.40 140.51 104.63 138.27 111.80 134.74 curveto
120.29 130.74 129.67 129.16 138.94 128.22 curveto
148.96 127.51 159.27 127.81 168.87 131.04 curveto
172.49 132.34 176.61 132.94 179.39 135.85 curveto
182.33 137.50 185.44 138.83 188.42 140.40 curveto
213.08 153.45 232.02 175.42 245.11 199.74 curveto
238.06 205.25 236.19 214.63 235.07 223.01 curveto
233.29 238.30 234.52 253.80 237.14 268.92 curveto
239.32 281.02 242.48 293.07 247.91 304.15 curveto
closepath
0.118 0.102 0.090 setrgbcolor
fill
newpath
262.40 316.48 moveto
268.38 318.13 274.52 314.52 277.48 309.38 curveto
282.80 300.25 283.31 289.29 283.43 278.97 curveto
282.90 258.64 278.93 238.17 270.20 219.72 curveto
266.75 213.04 262.56 206.04 255.62 202.55 curveto
251.04 200.14 244.68 201.52 242.19 206.26 curveto
235.92 216.62 236.15 229.30 236.06 241.01 curveto
236.94 262.30 240.32 284.01 249.84 303.27 curveto
252.84 308.52 256.32 314.47 262.40 316.48 curveto
closepath
0.239 0.831 0.529 setrgbcolor
fill
newpath
61.90 220.96 moveto
89.29 217.51 116.67 214.08 144.06 210.67 curveto
145.09 195.15 147.01 179.46 152.54 164.82 curveto
157.07 152.58 165.33 141.21 177.23 135.32 curveto
177.77 135.45 178.85 135.72 179.39 135.85 curveto
176.61 132.94 172.49 132.34 168.87 131.04 curveto
159.27 127.81 148.96 127.51 138.94 128.22 curveto
129.67 129.16 120.29 130.74 111.80 134.74 curveto
104.63 138.27 96.40 140.51 91.10 146.91 curveto
86.38 152.62 81.15 157.93 77.14 164.20 curveto
65.87 180.66 59.26 200.90 61.90 220.96 curveto
closepath
0.031 0.020 0.149 setrgbcolor
fill
newpath
63.36 218.81 moveto
64.59 218.79 65.83 218.74 67.06 218.67 curveto
92.20 215.62 117.30 212.21 142.45 209.33 curveto
143.88 191.79 146.13 173.86 153.84 157.81 curveto
156.97 151.87 160.68 146.08 165.73 141.57 curveto
165.70 141.35 lineto
165.62 140.84 165.46 139.82 165.38 139.31 curveto
166.61 137.94 167.84 136.58 169.07 135.21 curveto
167.99 134.06 166.93 132.90 165.81 131.79 curveto
145.67 126.63 124.12 130.51 105.56 139.35 curveto
102.47 140.91 99.10 142.07 96.50 144.44 curveto
87.98 152.15 80.41 160.99 74.80 171.05 curveto
65.92 185.20 61.84 202.17 63.36 218.81 curveto
closepath
0.349 0.310 0.749 setrgbcolor
fill
newpath
165.70 141.35 moveto
168.67 139.03 171.75 136.84 174.73 134.52 curveto
171.81 133.45 168.87 132.38 165.81 131.79 curveto
166.93 132.90 167.99 134.06 169.07 135.21 curveto
167.84 136.58 166.61 137.94 165.38 139.31 curveto
165.46 139.82 165.62 140.84 165.70 141.35 curveto
closepath
0.341 0.318 0.588 setrgbcolor
fill
newpath
102.54 100.90 moveto
103.13 102.21 103.94 101.43 103.77 100.27 curveto
107.25 100.12 110.73 100.17 114.22 100.13 curveto
114.16 95.54 114.20 90.94 114.19 86.34 curveto
110.17 86.37 106.16 86.36 102.15 86.38 curveto
102.33 91.21 101.81 96.11 102.54 100.90 curveto
closepath
0.122 0.102 0.090 setrgbcolor
fill
newpath
132.37 2.44 moveto
132.40 35.03 132.25 67.62 132.44 100.20 curveto
136.41 100.17 140.38 100.16 144.35 100.19 curveto
144.35 88.64 144.44 77.09 144.32 65.54 curveto
147.85 69.26 151.94 72.77 157.05 73.98 curveto
167.09 76.58 178.49 73.20 185.32 65.36 curveto
193.15 55.47 194.89 42.10 193.12 29.92 curveto
191.87 20.26 186.97 10.76 178.60 5.44 curveto
174.34 2.42 169.13 1.29 164.07 0.48 curveto
156.01 0.49 148.11 4.41 143.48 11.08 curveto
143.48 8.20 143.49 5.32 143.52 2.44 curveto
139.80 2.44 136.09 2.42 132.37 2.44 curveto
closepath
0.129 0.102 0.086 setrgbcolor
fill
newpath
286.36 90.72 moveto
290.32 93.20 294.37 95.54 298.36 97.97 curveto
298.27 89.73 298.30 81.49 298.35 73.25 curveto
302.36 73.20 306.37 73.22 310.39 73.23 curveto
310.37 70.13 310.37 67.02 310.37 63.92 curveto
306.35 63.89 302.34 63.91 298.32 63.92 curveto
298.31 49.61 298.30 35.29 298.32 20.97 curveto
298.47 18.63 298.24 15.75 300.30 14.12 curveto
303.16 11.92 307.03 12.93 310.32 13.15 curveto
310.84 10.06 311.38 6.96 312.00 3.88 curveto
312.00 2.53 lineto
305.03 1.39 296.80 0.14 290.89 4.98 curveto
286.51 8.50 286.67 14.60 286.42 19.68 curveto
286.30 34.42 286.41 49.17 286.38 63.92 curveto
283.44 63.90 280.51 63.90 277.58 63.90 curveto
277.58 67.02 277.58 70.13 277.56 73.23 curveto
280.50 73.21 283.44 73.21 286.38 73.22 curveto
286.33 79.06 286.39 84.89 286.36 90.72 curveto
closepath
0.122 0.098 0.090 setrgbcolor
fill
newpath
0.00 84.46 moveto
2.78 84.73 5.54 84.14 8.26 83.63 curveto
6.95 82.91 5.68 82.14 4.40 81.37 curveto
12.11 76.54 17.59 69.09 22.79 61.80 curveto
32.71 46.73 40.32 30.17 45.59 12.92 curveto
54.13 13.73 60.21 20.62 64.57 27.37 curveto
68.61 33.64 71.62 40.51 74.02 47.56 curveto
75.26 47.76 76.65 47.54 77.77 48.22 curveto
78.55 49.25 78.87 50.53 79.37 51.69 curveto
78.51 51.21 77.64 50.72 76.78 50.22 curveto
77.24 52.10 77.70 53.98 78.15 55.85 curveto
79.12 54.37 80.10 52.89 81.07 51.40 curveto
75.91 39.04 70.48 26.53 62.02 16.01 curveto
56.96 9.82 50.66 4.47 43.24 1.36 curveto
43.18 1.16 43.06 0.76 43.00 0.56 curveto
42.76 0.00 lineto
42.13 0.00 lineto
41.05 1.92 38.95 3.00 38.00 5.01 curveto
30.24 19.18 24.16 34.20 16.21 48.27 curveto
12.04 54.94 8.00 63.16 0.00 65.76 curveto
0.00 84.46 lineto
closepath
0.992 0.988 0.984 setrgbcolor
fill
newpath
8.26 83.63 moveto
10.82 84.12 13.40 84.56 16.02 84.48 curveto
35.27 84.37 54.53 84.56 73.78 84.39 curveto
77.92 84.39 81.29 81.75 83.39 78.36 curveto
79.50 76.52 75.59 74.72 71.58 73.15 curveto
70.21 67.53 74.20 62.94 76.09 58.05 curveto
76.24 54.44 75.03 50.97 74.02 47.56 curveto
71.62 40.51 68.61 33.64 64.57 27.37 curveto
60.21 20.62 54.13 13.73 45.59 12.92 curveto
40.32 30.17 32.71 46.73 22.79 61.80 curveto
17.59 69.09 12.11 76.54 4.40 81.37 curveto
5.68 82.14 6.95 82.91 8.26 83.63 curveto
closepath
0.122 0.102 0.090 setrgbcolor
fill
newpath
230.55 74.29 moveto
240.68 75.98 252.05 73.88 259.57 66.48 curveto
267.37 59.72 270.18 48.94 270.14 38.96 curveto
270.04 30.35 269.11 21.14 263.94 13.94 curveto
252.86 -1.74 227.33 -3.73 213.70 9.66 curveto
207.10 15.92 204.48 25.18 203.95 34.02 curveto
203.54 42.23 204.30 50.78 208.02 58.23 curveto
212.24 66.89 221.11 72.87 230.55 74.29 curveto
closepath
0.125 0.102 0.090 setrgbcolor
fill
newpath
102.09 73.30 moveto
106.11 73.20 110.12 73.21 114.14 73.27 curveto
114.26 49.66 114.13 26.05 114.20 2.45 curveto
110.20 2.42 106.19 2.43 102.19 2.46 curveto
102.12 26.07 102.29 49.69 102.09 73.30 curveto
closepath
0.118 0.102 0.090 setrgbcolor
fill
newpath
0.00 65.76 moveto
8.00 63.16 12.04 54.94 16.21 48.27 curveto
24.16 34.20 30.24 19.18 38.00 5.01 curveto
38.95 3.00 41.05 1.92 42.13 0.00 curveto
40.44 0.00 lineto
40.08 0.31 39.35 0.93 38.99 1.25 curveto
30.66 1.03 22.33 1.20 14.00 1.11 curveto
10.66 1.15 6.93 1.02 4.17 3.25 curveto
1.61 5.30 0.82 8.63 0.00 11.64 curveto
0.00 65.76 lineto
closepath
0.122 0.102 0.090 setrgbcolor
fill
newpath
160.07 64.78 moveto
165.11 65.60 170.42 63.97 174.04 60.36 curveto
179.98 55.02 181.36 46.56 181.50 38.96 curveto
181.49 31.06 180.43 22.26 174.64 16.35 curveto
171.02 12.33 165.46 10.08 160.07 10.83 curveto
151.88 11.61 145.68 19.05 144.36 26.85 curveto
143.11 34.14 142.83 41.75 144.57 48.98 curveto
146.37 56.45 152.21 63.53 160.07 64.78 curveto
closepath
1.000 1.000 1.000 setrgbcolor
fill
newpath
232.47 64.44 moveto
239.26 65.97 246.86 63.88 251.45 58.54 curveto
256.81 52.82 257.91 44.57 257.77 37.05 curveto
257.61 29.87 256.36 22.04 251.14 16.69 curveto
245.65 10.75 236.37 9.00 229.03 12.31 curveto
222.63 15.01 218.41 21.35 217.12 28.03 curveto
215.75 35.09 215.75 42.51 217.60 49.49 curveto
219.40 56.64 225.13 62.91 232.47 64.44 curveto
closepath
1.000 1.000 1.000 setrgbcolor
fill
newpath
83.86 58.46 moveto
84.43 45.65 83.98 32.82 84.14 20.00 curveto
84.04 15.25 84.57 10.12 82.20 5.80 curveto
80.83 2.99 77.70 1.60 74.74 1.28 curveto
64.18 0.61 53.50 1.93 43.00 0.56 curveto
43.06 0.76 43.18 1.16 43.24 1.36 curveto
50.66 4.47 56.96 9.82 62.02 16.01 curveto
70.48 26.53 75.91 39.04 81.07 51.40 curveto
82.02 53.75 82.97 56.10 83.86 58.46 curveto
closepath
0.122 0.102 0.090 setrgbcolor
fill
newpath
0.00 11.64 moveto
0.82 8.63 1.61 5.30 4.17 3.25 curveto
6.93 1.02 10.66 1.15 14.00 1.11 curveto
22.33 1.20 30.66 1.03 38.99 1.25 curveto
39.35 0.93 40.08 0.31 40.44 0.00 curveto
0.00 0.00 lineto
0.00 11.64 lineto
closepath
0.976 0.973 0.957 setrgbcolor
fill
%%EOF
